%YAML 1.1
%TAG !u! tag:unity3d.com,2011:
--- !u!1045 &1
EditorBuildSettings:
  m_ObjectHideFlags: 0
  serializedVersion: 2
  m_Scenes:
  - enabled: 1
    path: Assets/Scenes/Menu.unity
    guid: 793f8105b5eb845abaf29dd06cf0afe4
  - enabled: 1
    path: Assets/Scenes/Main.unity
    guid: d44399e75a6394da18b3f80208afb8a3
  - enabled: 1
    path: Assets/Scenes/MemoryBox.unity
    guid: eca1e36359cd346cb9d6fcfc6664446e
  m_configObjects: {}
