%YAML 1.1
%TAG !u! tag:unity3d.com,2011:
--- !u!114 &11400000
MonoBehaviour:
  m_ObjectHideFlags: 0
  m_CorrespondingSourceObject: {fileID: 0}
  m_PrefabInstance: {fileID: 0}
  m_PrefabAsset: {fileID: 0}
  m_GameObject: {fileID: 0}
  m_Enabled: 1
  m_EditorHideFlags: 0
  m_Script: {fileID: 11500000, guid: 32909a4932dd34623902911ebe43009c, type: 3}
  m_Name: AnythingSettings
  m_EditorClassIdentifier: 
  APIKey: JA8AHNJ-31K43W9-G4H4G4Z-YZPKSZK
  AppName: Mirror Maze
  Email: gordon@ggj.anything.world
  AgentId: anything-world-api
  FrameRate: 30
  PhysicsSolverIterations: 2
  MaximumAllowedTimeStep: 0.1
  anythingSetup: {fileID: 5334334621337651017, guid: 42f33aa46f8274e87bb68411cabfc206,
    type: 3}
  showDebugMessages: 1
